	{ 
		"tourid": 1, 
		"title": "Snorkeling Adventure", 
		"description": "Swimming with the turtles and visiting the shipwreck at the beautiful Carlisle Bay. Finger foods, drinks, snorkeling gear and music will be provided. Come have your photos taken with the turtles and have a blast", 
		"adultprice": 40, 
		"childprice": 20, 
		"img": "" 
	},
  { 
    "tourid": 2, 
  	"title": "West Coast Tropical Morning Cruise", 
  	"description": "View the shipwreck at Carlisle Bay, swim with the turtles. Finger foods, drinks, snorkeling gear, buffet lunch and music will be provided. Come have a blast as we party our way along the West Coast", 
  	"adultprice": 85, 
  	"childprice": 40, 
  	"img": "" 
  },
  { 
    "tourid": 3, 
  	"title": "West Coast Tropical Evening Cruise", 
  	"description": "This evening cruise from 2 pm - 6:30 pm includes viewing the shipwreck at Carlisle Bay and swimming with the turtles. Finger foods, drinks, snorkeling gear, buffet lunch and music will be provided. Come have a blast as we party our way along the West Coast.", 
  	"adultprice": 85, 
  	"childprice": 40, 
  	"img": "" 
  }
